-19.888 -5.561 89.282 -63.138 89.429 -1.309 43.285 1.025 85.220 46.680 49.896 98.937 -84.181 98.642 -70.832 53.383
41.459 91.881 24.926 -88.433 -49.124 -26.904 -100.935 -2.458 -85.354 80.596 55.727 -44.013 -60.998 -4.744
-49.464 -27.443 93.321 -20.804 24.312 25.747 40.403 66.649 -93.647 -36.775 -35.097 -36.672 -38.745 30.480
-94.090 58.203 -94.586 88.289 -53.967 13.344 -30.187 100.042 78.087 -22.080 16.145 -26.439 74.823 -100.502 -56.470 20.948
76.837 58.053 28.346 71.301 51.902 -85.768 -20.101 12.447 63.425 -50.747 -8.824 -89.432 33.143 84.727
58.118 -77.409 -22.666 38.129 -97.202 -44.537 -16.127 -29.300 -78.481 -32.803 29.026
47.728 19.675 -99.038 -33.002 -39.505 55.831 65.572 -47.078 -42.617 -49.196 74.559 12.493 -6.541 17.584 -28.379 -61.520 -36.963 92.907 49.922
61.806 8.494 -74.364 -75.029 43.420 12.909 6.072 25.367 53.967 43.755 -15.278 -90.606
8.821 6.212 30.265 7.879 -100.176 -19.848 -39.724 -31.907 34.637 -76.947 28.177 94.299 -13.995 64.431 75.399 73.782 48.227 -68.246 93.176 -53.671
-61.154 -30.599 52.852 65.757 -64.150 -99.734 -48.910 22.344 28.970 -78.599 -65.346 62.511 75.220 2.637 -75.233 -12.192
-18.523 -75.790 -24.373 -6.525 95.663 43.631 51.745 3.930 -28.508 92.517 70.657 48.596 -31.385 14.970 91.710 -78.270
-31.570 63.499 -92.467 -47.929 10.513 -82.243 -83.139 -21.378 -24.349 -53.047 94.958
0.362 -24.119 -82.410 -44.539 18.211 -30.353 -45.647 -78.807 70.711 -33.612 -50.739 47.270
-26.020 -22.666 -68.811 31.539 -37.159 81.800 65.753 -4.321 -74.789 26.574 27.648 96.102 70.658 -86.789
-22.233 -84.271 38.223 -65.344 -96.042 -6.532 82.182 -58.157 -0.047 -64.413
-67.344 53.156 65.911 -39.850 68.290 -77.346 -76.321 -100.377 70.991 84.797 95.374 69.004 36.646 78.850 1.440 96.001 28.630
36.052 53.088 -37.822 9.499 -42.355 54.928 -55.441 93.752 -92.848 -81.055 76.512 -87.064 -95.004 20.636 -64.036 -92.793 -83.865 73.601
-98.731 -97.474 -77.489 -76.765 -41.504 20.154 7.943 73.562 -40.191 94.262 34.989
-2.521 -52.389 -74.166 90.695 -79.297 19.292 -91.146 8.399 -96.803 -26.907 -39.603 -66.335 62.241 73.425 -27.715 25.069 -34.462
8.898 -35.126 34.634 49.622 -100.090 -6.996 71.292 -42.220 73.490 -83.978 -25.379 -45.581 73.571